{"current_page":7,"total_pages":1000,"total_items":5274,"photos":[{"id":134409827,"user_id":14795367,"name":"Big Cat","description":"","camera":null,"lens":null,"focal_length":null,"iso":null,"shutter_speed":null,"aperture":null,"times_viewed":238,"rating":36.7,"status":1,"created_at":"2016-01-02T11:05:24-05:00","category":26,"location":null,"latitude":null,"longitude":null,"taken_at":null,"hi_res_uploaded":0,"for_sale":true,"width":3000,"height":1935,"votes_count":9,"favorites_count":0,"comments_count":0,"nsfw":false,"sales_count":0,"for_sale_date":null,"highest_rating":69.3,"highest_rating_date":"2016-01-02T16:08:33-05:00","license_type":0,"converted":27,"collections_count":3,"crop_version":2,"privacy":false,"profile":true,"image_url":"https://drscdn.500px.org/photo/134409827/w%3D280_h%3D280/9164ee6eda03e9bc9f7d8ff4dace9d1e?v=2","images":[{"size":3,"url":"https://drscdn.500px.org/photo/134409827/w%3D280_h%3D280/9164ee6eda03e9bc9f7d8ff4dace9d1e?v=2","https_url":"https://drscdn.500px.org/photo/134409827/w%3D280_h%3D280/9164ee6eda03e9bc9f7d8ff4dace9d1e?v=2","format":"jpeg"},{"size":6,"url":"https://drscdn.500px.org/photo/134409827/h%3D1080_k%3D1_a%3D1/249cd5c1dbe7fd4184e337cb0c23449d","https_url":"https://drscdn.500px.org/photo/134409827/h%3D1080_k%3D1_a%3D1/249cd5c1dbe7fd4184e337cb0c23449d","format":"jpeg"}],"url":"/photo/134409827/big-cat-by-david-keep","positive_votes_count":9,"converted_bits":27,"watermark":true,"image_format":"jpeg","licensing_requested":false,"licensing_suggested":false,"is_free_photo":false,"user":{"id":14795367,"username":"davidtkeep","firstname":"David","lastname":"Keep","city":"Chesterfield","country":"UK","usertype":0,"fullname":"David Keep","userpic_url":"https://pacdn.500px.org/14795367/c23b71060666fc7f29eb4aa7a701f9d4362da8be/1.jpg?2","userpic_https_url":"https://pacdn.500px.org/14795367/c23b71060666fc7f29eb4aa7a701f9d4362da8be/1.jpg?2","cover_url":"https://pacdn.500px.org/14795367/c23b71060666fc7f29eb4aa7a701f9d4362da8be/cover_2048.jpg?2","upgrade_status":2,"store_on":true,"affection":3861,"avatars":{"default":{"https":"https://pacdn.500px.org/14795367/c23b71060666fc7f29eb4aa7a701f9d4362da8be/1.jpg?2"},"large":{"https":"https://pacdn.500px.org/14795367/c23b71060666fc7f29eb4aa7a701f9d4362da8be/2.jpg?2"},"small":{"https":"https://pacdn.500px.org/14795367/c23b71060666fc7f29eb4aa7a701f9d4362da8be/3.jpg?2"},"tiny":{"https":"https://pacdn.500px.org/14795367/c23b71060666fc7f29eb4aa7a701f9d4362da8be/4.jpg?2"}},"followers_count":17}},{"id":80843747,"user_id":4756844,"name":"NYC","description":"Vintage Jaguar in NYC","camera":"iPhone 5","lens":"Apple iPhone 5 back camera 4.12mm f/2.4","focal_length":"4.12","iso":"800","shutter_speed":"1/15","aperture":"f/2.5","times_viewed":1752,"rating":38.7,"status":1,"created_at":"2014-08-24T14:16:35-04:00","category":9,"location":null,"latitude":40.72647,"longitude":-73.98453,"taken_at":null,"hi_res_uploaded":2,"for_sale":true,"width":3264,"height":2448,"votes_count":12,"favorites_count":4,"comments_count":0,"nsfw":false,"sales_count":0,"for_sale_date":null,"highest_rating":67.4,"highest_rating_date":"2014-08-27T16:42:39-04:00","license_type":0,"converted":31,"collections_count":1,"crop_version":1,"privacy":false,"profile":true,"image_url":"https://drscdn.500px.org/photo/80843747/w%3D280_h%3D280/8cdaa92d4183c29f05afe871f65c5e22?v=1","images":[{"size":3,"url":"https://drscdn.500px.org/photo/80843747/w%3D280_h%3D280/8cdaa92d4183c29f05afe871f65c5e22?v=1","https_url":"https://drscdn.500px.org/photo/80843747/w%3D280_h%3D280/8cdaa92d4183c29f05afe871f65c5e22?v=1","format":"jpeg"},{"size":6,"url":"https://drscdn.500px.org/photo/80843747/h%3D1080_k%3D1_a%3D1/fa0ebea3f0b6a6d01d166dbf45d6f70e","https_url":"https://drscdn.500px.org/photo/80843747/h%3D1080_k%3D1_a%3D1/fa0ebea3f0b6a6d01d166dbf45d6f70e","format":"jpeg"}],"url":"/photo/80843747/nyc-by-grigorii-shevchenko","positive_votes_count":12,"converted_bits":31,"watermark":true,"image_format":"jpeg","licensing_requested":false,"licensing_suggested":false,"is_free_photo":false,"user":{"id":4756844,"username":"JohnyLeeBrown","firstname":"Grigorii","lastname":"Shevchenko","city":"","country":"","usertype":0,"fullname":"Grigorii Shevchenko","userpic_url":"https://pacdn.500px.org/4756844/764e438f152cfb3072e10c18cea6400cc41376e2/1.jpg?7","userpic_https_url":"https://pacdn.500px.org/4756844/764e438f152cfb3072e10c18cea6400cc41376e2/1.jpg?7","cover_url":"https://pacdn.500px.org/4756844/764e438f152cfb3072e10c18cea6400cc41376e2/cover_original.jpg?34","upgrade_status":0,"store_on":true,"affection":945,"avatars":{"default":{"https":"https://pacdn.500px.org/4756844/764e438f152cfb3072e10c18cea6400cc41376e2/1.jpg?7"},"large":{"https":"https://pacdn.500px.org/4756844/764e438f152cfb3072e10c18cea6400cc41376e2/2.jpg?7"},"small":{"https":"https://pacdn.500px.org/4756844/764e438f152cfb3072e10c18cea6400cc41376e2/3.jpg?7"},"tiny":{"https":"https://pacdn.500px.org/4756844/764e438f152cfb3072e10c18cea6400cc41376e2/4.jpg?7"}},"followers_count":12}},{"id":139654091,"user_id":15869985,"name":"E","description":null,"camera":"ILCE-7","lens":"----","focal_length":null,"iso":"250","shutter_speed":"1/60","aperture":null,"times_viewed":384,"rating":40.4,"status":1,"created_at":"2016-02-09T18:42:58-05:00","category":26,"location":null,"latitude":48.199578,"longitude":16.373447,"taken_at":"2015-05-23T11:16:21-04:00","hi_res_uploaded":0,"for_sale":true,"width":6000,"height":4000,"votes_count":26,"favorites_count":0,"comments_count":0,"nsfw":false,"sales_count":0,"for_sale_date":null,"highest_rating":67.1,"highest_rating_date":"2016-02-10T05:15:11-05:00","license_type":0,"converted":27,"collections_count":2,"crop_version":2,"privacy":false,"profile":true,"image_url":"https://drscdn.500px.org/photo/139654091/w%3D280_h%3D280/7bf64dab5c544fc59abb7166d57e111d?v=2","images":[{"size":3,"url":"https://drscdn.500px.org/photo/139654091/w%3D280_h%3D280/7bf64dab5c544fc59abb7166d57e111d?v=2","https_url":"https://drscdn.500px.org/photo/139654091/w%3D280_h%3D280/7bf64dab5c544fc59abb7166d57e111d?v=2","format":"jpeg"},{"size":6,"url":"https://drscdn.500px.org/photo/139654091/h%3D1080_k%3D1_a%3D1/125c64717e0d0a6d68eb412852278be4","https_url":"https://drscdn.500px.org/photo/139654091/h%3D1080_k%3D1_a%3D1/125c64717e0d0a6d68eb412852278be4","format":"jpeg"}],"url":"/photo/139654091/e-by-andrei","positive_votes_count":26,"converted_bits":27,"watermark":false,"image_format":"jpeg","licensing_requested":false,"licensing_suggested":false,"is_free_photo":false,"user":{"id":15869985,"username":"anduma","firstname":"Andrei","lastname":"","city":"Ann Arbor","country":"","usertype":0,"fullname":"Andrei","userpic_url":"https://pacdn.500px.org/15869985/b9fdf08a510a784b6d25e61e6012f6d3c5e9b0b7/1.jpg?1","userpic_https_url":"https://pacdn.500px.org/15869985/b9fdf08a510a784b6d25e61e6012f6d3c5e9b0b7/1.jpg?1","cover_url":"https://pacdn.500px.org/15869985/b9fdf08a510a784b6d25e61e6012f6d3c5e9b0b7/cover_2048.jpg?1","upgrade_status":0,"store_on":true,"affection":1893,"avatars":{"default":{"https":"https://pacdn.500px.org/15869985/b9fdf08a510a784b6d25e61e6012f6d3c5e9b0b7/1.jpg?1"},"large":{"https":"https://pacdn.500px.org/15869985/b9fdf08a510a784b6d25e61e6012f6d3c5e9b0b7/2.jpg?1"},"small":{"https":"https://pacdn.500px.org/15869985/b9fdf08a510a784b6d25e61e6012f6d3c5e9b0b7/3.jpg?1"},"tiny":{"https":"https://pacdn.500px.org/15869985/b9fdf08a510a784b6d25e61e6012f6d3c5e9b0b7/4.jpg?1"}},"followers_count":92}},{"id":115302493,"user_id":13557271,"name":"E + 02","description":"fender & trunk lid of a Jaguar E-Type in midnight blue, standing next to an orange BMW '02 and in front of an orange house at a car show in Schopfheim. just getting caleidoscoped","camera":"X-E1","lens":"XF14mmF2.8 R","focal_length":"14","iso":"800","shutter_speed":"1/420","aperture":"5.6","times_viewed":829,"rating":36.8,"status":1,"created_at":"2015-07-17T12:23:29-04:00","category":10,"location":null,"latitude":null,"longitude":null,"taken_at":"2013-07-20T17:36:16-04:00","hi_res_uploaded":0,"for_sale":true,"width":2260,"height":2260,"votes_count":11,"favorites_count":6,"comments_count":0,"nsfw":false,"sales_count":0,"for_sale_date":null,"highest_rating":65.8,"highest_rating_date":"2015-07-17T12:40:21-04:00","license_type":0,"converted":27,"collections_count":-1,"crop_version":1,"privacy":false,"profile":true,"image_url":"https://drscdn.500px.org/photo/115302493/w%3D280_h%3D280/fa09474e472a6c2efe17f4dcb2c4095d?v=1","images":[{"size":3,"url":"https://drscdn.500px.org/photo/115302493/w%3D280_h%3D280/fa09474e472a6c2efe17f4dcb2c4095d?v=1","https_url":"https://drscdn.500px.org/photo/115302493/w%3D280_h%3D280/fa09474e472a6c2efe17f4dcb2c4095d?v=1","format":"jpeg"},{"size":6,"url":"https://drscdn.500px.org/photo/115302493/h%3D1080_k%3D1_a%3D1/d02235636ebff0c1537384fd27e2fd7e","https_url":"https://drscdn.500px.org/photo/115302493/h%3D1080_k%3D1_a%3D1/d02235636ebff0c1537384fd27e2fd7e","format":"jpeg"}],"url":"/photo/115302493/e-02-by-erik-fiss","positive_votes_count":11,"converted_bits":27,"watermark":false,"image_format":"jpeg","licensing_requested":false,"licensing_suggested":false,"is_free_photo":false,"user":{"id":13557271,"username":"semihollow","firstname":"Erik","lastname":"Fiss","city":"Rheinfelden","country":"Germany","usertype":0,"fullname":"Erik Fiss","userpic_url":"https://pacdn.500px.org/13557271/4c04454a334c7bdb3807b6f233754357026d6e8d/1.jpg?1","userpic_https_url":"https://pacdn.500px.org/13557271/4c04454a334c7bdb3807b6f233754357026d6e8d/1.jpg?1","cover_url":"https://pacdn.500px.org/13557271/4c04454a334c7bdb3807b6f233754357026d6e8d/cover_original.jpg?8","upgrade_status":1,"store_on":true,"affection":641,"avatars":{"default":{"https":"https://pacdn.500px.org/13557271/4c04454a334c7bdb3807b6f233754357026d6e8d/1.jpg?1"},"large":{"https":"https://pacdn.500px.org/13557271/4c04454a334c7bdb3807b6f233754357026d6e8d/2.jpg?1"},"small":{"https":"https://pacdn.500px.org/13557271/4c04454a334c7bdb3807b6f233754357026d6e8d/3.jpg?1"},"tiny":{"https":"https://pacdn.500px.org/13557271/4c04454a334c7bdb3807b6f233754357026d6e8d/4.jpg?1"}},"followers_count":12}},{"id":69583011,"user_id":352665,"name":"Snail","description":null,"camera":"808 PureView","lens":null,"focal_length":"8.015625","iso":"50","shutter_speed":"1/667","aperture":"2.398","times_viewed":481,"rating":32.8,"status":1,"created_at":"2014-05-06T11:54:41-04:00","category":6,"location":null,"latitude":54.913728,"longitude":23.931864,"taken_at":"2014-04-21T15:02:14-04:00","hi_res_uploaded":2,"for_sale":true,"width":3264,"height":2448,"votes_count":10,"favorites_count":1,"comments_count":0,"nsfw":false,"sales_count":0,"for_sale_date":null,"highest_rating":62.9,"highest_rating_date":"2014-05-07T11:44:29-04:00","license_type":0,"converted":31,"collections_count":0,"crop_version":0,"privacy":false,"profile":true,"image_url":"https://drscdn.500px.org/photo/69583011/w%3D280_h%3D280/78d45602edc58b71549af65b88993f3f?v=0","images":[{"size":3,"url":"https://drscdn.500px.org/photo/69583011/w%3D280_h%3D280/78d45602edc58b71549af65b88993f3f?v=0","https_url":"https://drscdn.500px.org/photo/69583011/w%3D280_h%3D280/78d45602edc58b71549af65b88993f3f?v=0","format":"jpeg"},{"size":6,"url":"https://drscdn.500px.org/photo/69583011/h%3D1080_k%3D1_a%3D1/50bac14d082174060b2b3c1925d3194a","https_url":"https://drscdn.500px.org/photo/69583011/h%3D1080_k%3D1_a%3D1/50bac14d082174060b2b3c1925d3194a","format":"jpeg"}],"url":"/photo/69583011/snail-by-linas-%C5%A0apnagis","positive_votes_count":10,"converted_bits":31,"watermark":false,"image_format":"jpeg","licensing_requested":false,"licensing_suggested":false,"is_free_photo":false,"user":{"id":352665,"username":"linuciux","firstname":"Linas","lastname":"Šapnagis","city":"Kaunas","country":"Lithuania","usertype":0,"fullname":"Linas Šapnagis","userpic_url":"https://pacdn.500px.org/352665/f530e176261984420cb87cccf7417262d8c41eed/1.jpg?1","userpic_https_url":"https://pacdn.500px.org/352665/f530e176261984420cb87cccf7417262d8c41eed/1.jpg?1","cover_url":"https://pacdn.500px.org/352665/f530e176261984420cb87cccf7417262d8c41eed/cover_2048.jpg?6","upgrade_status":0,"store_on":true,"affection":725,"avatars":{"default":{"https":"https://pacdn.500px.org/352665/f530e176261984420cb87cccf7417262d8c41eed/1.jpg?1"},"large":{"https":"https://pacdn.500px.org/352665/f530e176261984420cb87cccf7417262d8c41eed/2.jpg?1"},"small":{"https":"https://pacdn.500px.org/352665/f530e176261984420cb87cccf7417262d8c41eed/3.jpg?1"},"tiny":{"https":"https://pacdn.500px.org/352665/f530e176261984420cb87cccf7417262d8c41eed/4.jpg?1"}},"followers_count":15}}]}